<?xml version="1.0" encoding="utf-8"?>
<!-- Generator: Adobe Illustrator 23.0.1, SVG Export Plug-In . SVG Version: 6.00 Build 0)  -->
<svg version="1.1" id="Capa_1" xmlns="http://www.w3.org/2000/svg" xmlns:xlink="http://www.w3.org/1999/xlink" x="0px" y="0px"
	 viewBox="0 0 16.1 190" style="enable-background:new 0 0 16.1 190;" xml:space="preserve">
<style type="text/css">
	.st0{fill:#FFFFFF;}
</style>
<path class="st0" d="M6.7,0v174c-3.8,0.7-6.7,4-6.7,7.9c0,4.5,3.6,8.1,8.1,8.1s8.1-3.6,8.1-8.1c0-4-2.9-7.3-6.7-7.9V0H6.7z"/>
</svg>
